{
  "$schema": "http://json-schema.org/draft-04/schema#",
  "type": "object",
  "properties": {
    "Operador": {
      "type": "integer"
    },
    "Codigo_Laboratorio": {
      "type": "integer"
    },
    "Identificación_RFV": {
      "type": "string"
    },
    "Identificación_Supervisor_inmediato": {
      "type": "string"
    },
    "Nombres_RFV": {
      "type": "string"
    },
    "Apellidos_RFV": {
      "type": "string"
    },
    "Tipo_Persona": {
      "type": "string"
    },
    "idrol": {
      "type": "string"
    },
    "Linea_Productos_RFV": {
      "type": "string"
    },
    "Telefono": {
      "type": "string"
    },
    "eMail_RFV": {
      "type": "string"
    },
    "Zona_RFV": {
      "type": "string"
    },
    "Nombre_Zona_RFV": {
      "type": "string"
    },
    "Dirección_Habitación_RFV": {
      "type": "string"
    },
    "Brick_Ruta_RFV": {
      "type": "string"
    },
    "Descripción_RutaBrick_RFV": {
      "type": "string"
    },
    "TipoActividades_RFV": {
      "type": "string"
    },
    "Operacion": {
      "type": "string"
    },
    "Estatus": {
      "type": "integer"
    }
  },
  "required": [
    "Operador",
    "Codigo_Laboratorio",
    "Identificación_RFV",
    "Identificación_Supervisor_inmediato",
    "Nombres_RFV",
    "Apellidos_RFV",
    "Tipo_Persona",
    "idrol",
    "Linea_Productos_RFV",
    "Telefono",
    "eMail_RFV",
    "Zona_RFV",
    "Nombre_Zona_RFV",
    "Dirección_Habitación_RFV",
    "Brick_Ruta_RFV",
    "Descripción_RutaBrick_RFV",
    "TipoActividades_RFV",
    "Operacion",
    "Estatus"
  ]
}