codigo;schema
1;test_schema.json
10;clientes_schema.json
20;representantes_schema.json
30;productos_schema.json
40;materiales_schema.json
50;esquemaPromocional_schema.json
60;facturas_schema.json
70;mayoristas_schema.json
